[
  {

    "UniqueId": "APOD",
    "Title": "NASA Astronomy Picture of the Day",
    "SmallTitle": "APOD",
    "Description": "Each day a different image or photograph of our fascinating universe is featured, along with a brief explanation written by a professional astronomer.",
    "url": "http:\/\/apod.nasa.gov\/apod.rss",
    "local_uri": "ms-appx:///DataModel/apod.xml",
    "enabled" : true,
    "Items": [
    
    ]
  },
  {
    "UniqueId": "IOTD",
    "Title": "NASA Image of the Day",
    "SmallTitle": "IOTD",
    "Description" : "Each day a different image or photograph of our fascinating universe is featured, along with a brief explanation.",
    "url": "http://www.nasa.gov/rss/dyn/lg_image_of_the_day.rss",
    "local_uri": "ms-appx:///DataModel/iotd.xml",
    "enabled" : true,   
    "Items":
    [
     
    ]
  },
  {
    "UniqueId": "EOTD",
    "Title": "NASA Earth Observatory Image of the day",
    "SmallTitle": "EOTD",
    "Description" : "Each day a different image or photograph of our fascinating planet is featured, along with a brief explanation.",
    "url": "http://earthobservatory.nasa.gov/Feeds/rss/eo_iotd.rss",
    "local_uri": "ms-appx:///DataModel/eoiotd.xml",
    "enabled" : true,  
    "Items":
    [
     
    ]
  },
  {
    "UniqueId": "NGPOD",
    "Title": "National Geographic Photo of the day",
    "SmallTitle": "NGPOD",
    "Description" : "Each day a different image or photograph of our fascinating planet is featured, along with a brief explanation.",
    "url": "http://photography.nationalgeographic.com/photography/photo-of-the-day/",
    "local_uri": "ms-appx:///DataModel/eoiotd.xml",
    "enabled" : true,  
    "Items":
    [
     
    ]
  },
  {
    "UniqueId": "ESPOD",
    "Title": "Earth Science Picture of the day",
    "SmallTitle": "WPOD",
    "Description" : "Each day a different image or photograph of our fascinating planet is featured, along with a brief explanation.",
    "url": "http://feeds.feedburner.com/EarthSciencePictureOfTheDay?format=rss",
    "local_uri": "ms-appx:///DataModel/eoiotd.xml",
    "enabled" : true,  
    "Items":
    [
     
    ]
  },
  {
    "UniqueId": "WPOD",
    "Title": "Wikipedia Picture of the day",
    "SmallTitle": "WPOD",
    "Description" : "Each day a different image or photograph of our fascinating planet is featured, along with a brief explanation.",
    "url": "https://en.wikipedia.org/wiki/Wikipedia:Picture_of_the_day",
    "local_uri": "ms-appx:///DataModel/eoiotd.xml",
    "enabled" : true,  
    "Items":
    [
     
    ]
  },
  {
    "UniqueId": "WMPOD",
    "Title": "Wikimedia Picture of the day",
    "SmallTitle": "WMPOD",
    "Description" : "Each day a different image or photograph of our fascinating planet is featured, along with a brief explanation.",
    "url": "https://commons.wikimedia.org/w/api.php?action=featuredfeed&feed=potd&feedformat=rss&language=en",
    "local_uri": "ms-appx:///DataModel/eoiotd.xml",
    "enabled" : true,  
    "Items":
    [
     
    ]
  },
  {
    "UniqueId": "BPOD",
    "Title": "Biomedical Picture of the day",
    "SmallTitle": "WPOD",
    "Description" : "Each day a different image or photograph of our fascinating planet is featured, along with a brief explanation.",
    "url": "http://bpod.mrc.ac.uk/feed",
    "local_uri": "ms-appx:///DataModel/eoiotd.xml",
    "enabled" : true,  
    "Items":
    [
     
    ]
  }
]
